Custom aggregation
…
custom_funs <- list(max = ~ max(., na.rm = TRUE))

three_hours_agg <- sfn_metrics(
  ARG_TRE,
  period = '3 hours',
  .funs = custom_funs,
  solar = TRUE,
  interval = 'general'
)
#> [1] "Crunching data for ARG_TRE. In large datasets this could take a while"
#> [1] "General data for ARG_TRE"

three_hours_agg[['sapf']]
#> # A tibble: 105 × 5
#>    TIMESTAMP           ARG_TRE_Nan_Jt_1_max ARG_TRE_Nan_Jt_2_max ARG_T…¹ ARG_T…²
#>    <dttm>                             <dbl>                <dbl>   <dbl>   <dbl>
#>  1 2009-11-17 21:00:00                 322.                 190.    313.    293.
#>  2 2009-11-18 00:00:00                 301.                 178.    331.    309.
#>  3 2009-11-18 03:00:00                 343.                 198.    301.    285.
#>  4 2009-11-18 06:00:00                 504.                 386.    406.    428.
#>  5 2009-11-18 09:00:00                 698.                 715.    642.    647.
#>  6 2009-11-18 12:00:00                 778.                 617.    679.    948.
#>  7 2009-11-18 15:00:00                 724.                 531.    603.    624.
#>  8 2009-11-18 18:00:00                 660.                 514.    517.    693.
#>  9 2009-11-18 21:00:00                 384.                 261.    348.    403.
#> 10 2009-11-19 00:00:00                 403.                 339.    313.    396.
#> # … with 95 more rows, and abbreviated variable names ¹​ARG_TRE_Nan_Jt_3_max,
#> #   ²​ARG_TRE_Nan_Jt_4_max
