sapfluxnetr (Not So) Quick Guide
…
Accessing the data and the metadata

sfn_data objects have different slots containing the
different data, each of one has a getter function (see
?sfn_get_methods and
vignette('sfn-data-classes', package = 'sapfluxnetr' for
detailed info):

# sapf data with original site timestamp
arg_maz_sapf <- get_sapf_data(arg_maz, solar = FALSE)
arg_maz_sapf
#> # A tibble: 288 × 6
#>    TIMESTAMP           ARG_MAZ_Npu_Jt_1 ARG_MAZ_Npu_Jt_2 ARG_MAZ_Npu_Jt_3
#>    <dttm>                         <dbl>            <dbl>            <dbl>
#>  1 2009-11-19 00:00:00            1955.             754.             742.
#>  2 2009-11-19 01:00:00            1833.             752.             631.
#>  3 2009-11-19 02:00:00            1817.             795.             597.
#>  4 2009-11-19 03:00:00            1598.             788.             579.
#>  5 2009-11-19 04:00:00            1419.             780.             518.
#>  6 2009-11-19 05:00:00            1506.             735.             430.
#>  7 2009-11-19 06:00:00            1649.             720.             539.
#>  8 2009-11-19 07:00:00            1630.             882.             542.
#>  9 2009-11-19 08:00:00            1909.            1015.             655.
#> 10 2009-11-19 09:00:00            2849.            1459.             930.
#> # ℹ 278 more rows
#> # ℹ 2 more variables: ARG_MAZ_Npu_Jt_4 <dbl>, ARG_MAZ_Npu_Jt_5 <dbl>

# env_data with calculated aparent solar time
arg_maz_env <- get_env_data(arg_maz, solar = TRUE)
arg_maz_env
#> # A tibble: 288 × 10
#>    TIMESTAMP              ta    rh   vpd sw_in    ws precip swc_shallow ppfd_in
#>    <dttm>              <dbl> <dbl> <dbl> <dbl> <dbl>  <dbl>       <dbl>   <dbl>
#>  1 2009-11-18 22:24:18  4.99  55.6 0.387     0  12.9    0         0.359    0   
#>  2 2009-11-18 23:24:18  4.57  60   0.339     0   9.7    0         0.359    0   
#>  3 2009-11-19 00:24:02  4.99  60.4 0.345     0  11.3    0         0.358    0   
#>  4 2009-11-19 01:24:02  3.31  66   0.263     0   9.7    0.2       0.357    0   
#>  5 2009-11-19 02:24:02  2.03  68.7 0.221     0  12.9    0         0.357    0   
#>  6 2009-11-19 03:24:02  2.46  58.8 0.300     0  17.7    0         0.356    0   
#>  7 2009-11-19 04:24:02  2.46  55.2 0.327     0  17.7    0         0.356    0   
#>  8 2009-11-19 05:24:02  2.89  53.7 0.348     3  14.5    0         0.356    6.34
#>  9 2009-11-19 06:24:02  4.15  52.8 0.388    78   9.7    0         0.356  165.  
#> 10 2009-11-19 07:24:02  5.4   43.2 0.509   275  11.3    0         0.355  581.  
#> # ℹ 278 more rows
#> # ℹ 1 more variable: ext_rad <dbl>
…
There is also some getters thet can come in handy sometimes.
get_timestamp and get_solar_timestamp access
to the original timestamp and the apparent solar time timestamp.
get_si_code access to the site code. See
vignette('sfn-data-classes', package = 'sapfluxnetr' for
more info.

Flags

sfn_data objects also have two more slots, accessed with
get_sapf_flags and get_env_flags.

arg_maz_sapf_flags <- get_sapf_flags(arg_maz, solar = TRUE)
arg_maz_sapf_flags
#> # A tibble: 288 × 6
#>    TIMESTAMP           ARG_MAZ_Npu_Jt_1 ARG_MAZ_Npu_Jt_2 ARG_MAZ_Npu_Jt_3
#>    <dttm>              <chr>            <chr>            <chr>           
#>  1 2009-11-18 22:24:18 ""               ""               ""              
#>  2 2009-11-18 23:24:18 ""               ""               ""              
#>  3 2009-11-19 00:24:02 ""               ""               ""              
#>  4 2009-11-19 01:24:02 ""               ""               ""              
#>  5 2009-11-19 02:24:02 ""               ""               ""              
#>  6 2009-11-19 03:24:02 ""               ""               ""              
#>  7 2009-11-19 04:24:02 ""               ""               ""              
#>  8 2009-11-19 05:24:02 ""               ""               ""              
#>  9 2009-11-19 06:24:02 ""               ""               ""              
#> 10 2009-11-19 07:24:02 ""               ""               ""              
#> # ℹ 278 more rows
#> # ℹ 2 more variables: ARG_MAZ_Npu_Jt_4 <chr>, ARG_MAZ_Npu_Jt_5 <chr>

arg_maz_env_flags <- get_env_flags(arg_maz, solar = TRUE)
arg_maz_env_flags
#> # A tibble: 288 × 10
#>    TIMESTAMP           ta    rh    vpd   sw_in ws    precip  swc_shallow ppfd_in
#>    <dttm>              <chr> <chr> <chr> <chr> <chr> <chr>   <chr>       <chr>  
#>  1 2009-11-18 22:24:18 ""    ""    ""    ""    ""    ""      ""          CALCUL…
#>  2 2009-11-18 23:24:18 ""    ""    ""    ""    ""    ""      ""          CALCUL…
#>  3 2009-11-19 00:24:02 ""    ""    ""    ""    ""    ""      ""          CALCUL…
#>  4 2009-11-19 01:24:02 ""    ""    ""    ""    ""    "OUT_W… ""          CALCUL…
#>  5 2009-11-19 02:24:02 ""    ""    ""    ""    ""    ""      ""          CALCUL…
#>  6 2009-11-19 03:24:02 ""    ""    ""    ""    ""    ""      ""          CALCUL…
#>  7 2009-11-19 04:24:02 ""    ""    ""    ""    ""    ""      ""          CALCUL…
#>  8 2009-11-19 05:24:02 ""    ""    ""    ""    ""    ""      ""          CALCUL…
#>  9 2009-11-19 06:24:02 ""    ""    ""    ""    ""    ""      ""          CALCUL…
#> 10 2009-11-19 07:24:02 ""    ""    ""    ""    ""    ""      ""          CALCUL…
#> # ℹ 278 more rows
#> # ℹ 1 more variable: ext_rad <chr>
…
The important bit here is .write_cache = TRUE. This will
write a file called .metadata_cache.RData containing all
the metadata for all sites present in folder. This file
will be used any time we will filter the metadata, so there is no need
of accessing all the data again.

If we take a look at sfn_metadata we can see a list with 5
data frames, one for each metadata class (site, stand, species, plant
and environmental metadata).

# access plant metadata
sfn_metadata[['plant_md']]
#> # A tibble: 43 × 26
#>    pl_age pl_azimut_int      pl_bark_thick pl_code pl_dbh pl_height pl_leaf_area
#>     <dbl> <chr>                      <dbl> <chr>    <dbl>     <dbl>        <dbl>
#>  1  180   Corrected, measur…          14.7 ARG_MA…   41.1      NA          109. 
#>  2  180   No azimuthal corr…          13   ARG_MA…   33.2      NA           58.4
#>  3  180   No azimuthal corr…           6   ARG_MA…   23.2      NA           35.0
#>  4  180   No azimuthal corr…          21   ARG_MA…   55.6      NA          174. 
#>  5  180   No azimuthal corr…          10   ARG_MA…   38        NA           88  
#>  6  140   Corrected, measur…          23.5 ARG_TR…   23.6      NA           29.7
#>  7  140   No azimuthal corr…          22.5 ARG_TR…   20.2      NA           13.0
#>  8  140   No azimuthal corr…          22   ARG_TR…   23.8      NA           29.8
#>  9  140   No azimuthal corr…          23.5 ARG_TR…   19.5      NA           15.1
#> 10   14.5 No azimuthal corr…          NA   AUS_CA…   13.1      14.3         NA  
#> # ℹ 33 more rows
#> # ℹ 19 more variables: pl_name <chr>, pl_radial_int <chr>, pl_remarks <chr>,
#> #   pl_sap_units <chr>, pl_sapw_area <dbl>, pl_sapw_depth <dbl>,
#> #   pl_sens_calib <lgl>, pl_sens_cor_grad <chr>, pl_sens_cor_zero <chr>,
#> #   pl_sens_hgt <dbl>, pl_sens_length <int>, pl_sens_man <chr>,
#> #   pl_sens_meth <chr>, pl_sens_timestep <int>, pl_social <chr>,
#> #   pl_species <chr>, pl_treatment <chr>, si_code <chr>, …
…
This allows for returning directly a metrics data frame combining all
sites aggregated along with their metadata, saving one step in the
workflow:

temperate_tidy <- temperate_sites %>%
  daily_metrics(tidy = TRUE, metadata = sfn_metadata)
#> [1] "Crunching data for ARG_MAZ. In large datasets this could take a while"
#> [1] "General data for ARG_MAZ"
#> [1] "Crunching data for ARG_TRE. In large datasets this could take a while"
#> [1] "General data for ARG_TRE"
#> [1] "Crunching data for AUS_CAN_ST2_MIX. In large datasets this could take a while"
#> [1] "General data for AUS_CAN_ST2_MIX"

temperate_tidy
#> # A tibble: 12,769 × 129
#>    TIMESTAMP           si_code  pl_code sapflow_mean sapflow_sd sapflow_coverage
#>    <dttm>              <chr>    <chr>          <dbl>      <dbl>            <dbl>
#>  1 2006-06-20 00:00:00 AUS_CAN… AUS_CA…          NaN         NA                0
#>  2 2006-06-20 00:00:00 AUS_CAN… AUS_CA…          NaN         NA                0
#>  3 2006-06-20 00:00:00 AUS_CAN… AUS_CA…          NaN         NA                0
#>  4 2006-06-20 00:00:00 AUS_CAN… AUS_CA…          NaN         NA                0
#>  5 2006-06-20 00:00:00 AUS_CAN… AUS_CA…          NaN         NA                0
#>  6 2006-06-20 00:00:00 AUS_CAN… AUS_CA…          NaN         NA                0
#>  7 2006-06-20 00:00:00 AUS_CAN… AUS_CA…          NaN         NA                0
#>  8 2006-06-20 00:00:00 AUS_CAN… AUS_CA…          NaN         NA                0
#>  9 2006-06-20 00:00:00 AUS_CAN… AUS_CA…          NaN         NA                0
#> 10 2006-06-20 00:00:00 AUS_CAN… AUS_CA…          NaN         NA                0
#> # ℹ 12,759 more rows
#> # ℹ 123 more variables: sapflow_q_95 <dbl>, sapflow_centroid <dbl>,
#> #   ta_mean <dbl>, rh_mean <dbl>, vpd_mean <dbl>, sw_in_mean <dbl>,
#> #   ws_mean <dbl>, precip_mean <dbl>, swc_shallow_mean <dbl>,
#> #   ppfd_in_mean <dbl>, ext_rad_mean <dbl>, ta_sd <dbl>, rh_sd <dbl>,
#> #   vpd_sd <dbl>, sw_in_sd <dbl>, ws_sd <dbl>, precip_sd <dbl>,
#> #   swc_shallow_sd <dbl>, ppfd_in_sd <dbl>, ext_rad_sd <dbl>, …
…
