sfn_data classes
…
get methods: methods to get any slot outside the
object. In the case of sapf and env data, TIMESTAMP is added (based on
the solar argument) in order to obtain fully functional
datasets. See ?sfn_get_methods for more details.

get_sapf_data(ARG_TRE, solar = FALSE)
#> # A tibble: 312 × 5
#>    TIMESTAMP           ARG_TRE_Nan_Jt_1 ARG_TRE_Nan_Jt_2 ARG_TRE_Nan_J…¹ ARG_T…²
#>    <dttm>                         <dbl>            <dbl>           <dbl>   <dbl>
#>  1 2009-11-18 00:00:00             322.             190.            313.    218.
#>  2 2009-11-18 01:00:00             293.             157.            293.    293.
#>  3 2009-11-18 02:00:00             298.             178.            331.    309.
#>  4 2009-11-18 03:00:00             298.             168.            299.    258.
#>  5 2009-11-18 04:00:00             301.             170.            292.    301.
#>  6 2009-11-18 05:00:00             320.             198.            295.    261.
#>  7 2009-11-18 06:00:00             343.             196.            301.    285.
#>  8 2009-11-18 07:00:00             324.             194.            292.    282.
#>  9 2009-11-18 08:00:00             353.             284.            323.    374.
#> 10 2009-11-18 09:00:00             433.             340.            352.    372.
#> # … with 302 more rows, and abbreviated variable names ¹​ARG_TRE_Nan_Jt_3,
#> #   ²​ARG_TRE_Nan_Jt_4
get_sapf_data(ARG_TRE, solar = TRUE)
#> # A tibble: 312 × 5
#>    TIMESTAMP           ARG_TRE_Nan_Jt_1 ARG_TRE_Nan_Jt_2 ARG_TRE_Nan_J…¹ ARG_T…²
#>    <dttm>                         <dbl>            <dbl>           <dbl>   <dbl>
#>  1 2009-11-17 22:24:58             322.             190.            313.    218.
#>  2 2009-11-17 23:24:58             293.             157.            293.    293.
#>  3 2009-11-18 00:24:43             298.             178.            331.    309.
#>  4 2009-11-18 01:24:43             298.             168.            299.    258.
#>  5 2009-11-18 02:24:43             301.             170.            292.    301.
#>  6 2009-11-18 03:24:43             320.             198.            295.    261.
#>  7 2009-11-18 04:24:43             343.             196.            301.    285.
#>  8 2009-11-18 05:24:43             324.             194.            292.    282.
#>  9 2009-11-18 06:24:43             353.             284.            323.    374.
#> 10 2009-11-18 07:24:43             433.             340.            352.    372.
#> # … with 302 more rows, and abbreviated variable names ¹​ARG_TRE_Nan_Jt_3,
#> #   ²​ARG_TRE_Nan_Jt_4
get_env_data(ARG_TRE) # solar default is FALSE
#> # A tibble: 312 × 10
#>    TIMESTAMP              ta    rh   vpd sw_in    ws precip swc_shallow ppfd_in
#>    <dttm>              <dbl> <dbl> <dbl> <dbl> <dbl>  <dbl>       <dbl>   <dbl>
#>  1 2009-11-18 00:00:00  1     41.7 0.383   0   13.6       0       0.396      0 
#>  2 2009-11-18 01:00:00  1.2   41.5 0.389   0   15.8       0       0.396      0 
#>  3 2009-11-18 02:00:00  1.4   41.4 0.396   0   22.5       0       0.395      0 
#>  4 2009-11-18 03:00:00  1     38.9 0.401   0   13.6       0       0.394      0 
#>  5 2009-11-18 04:00:00  0.6   36.5 0.405   0    6.72      0       0.394      0 
#>  6 2009-11-18 05:00:00  1.65  37.5 0.430   0   20.3       0       0.394      0 
#>  7 2009-11-18 06:00:00  2.7   38.5 0.456   0    4.48      0       0.393      0 
#>  8 2009-11-18 07:00:00  4     38.2 0.503   0    2.24      0       0.392      0 
#>  9 2009-11-18 08:00:00  5.3   37.8 0.554  99.4  2.24      0       0.391    210.
#> 10 2009-11-18 09:00:00  6.75  33.0 0.660 245    4.48      0       0.391    518.
#> # … with 302 more rows, and 1 more variable: ext_rad <dbl>
get_sapf_flags(ARG_TRE) # solar default is FALSE
#> # A tibble: 312 × 5
#>    TIMESTAMP           ARG_TRE_Nan_Jt_1 ARG_TRE_Nan_Jt_2 ARG_TRE_Nan_J…¹ ARG_T…²
#>    <dttm>              <chr>            <chr>            <chr>           <chr>  
#>  1 2009-11-18 00:00:00 ""               ""               ""              ""     
#>  2 2009-11-18 01:00:00 ""               ""               ""              ""     
#>  3 2009-11-18 02:00:00 ""               ""               ""              ""     
#>  4 2009-11-18 03:00:00 ""               ""               ""              ""     
#>  5 2009-11-18 04:00:00 ""               ""               ""              ""     
#>  6 2009-11-18 05:00:00 ""               ""               ""              ""     
#>  7 2009-11-18 06:00:00 ""               ""               ""              ""     
#>  8 2009-11-18 07:00:00 ""               ""               ""              ""     
#>  9 2009-11-18 08:00:00 ""               ""               ""              ""     
#> 10 2009-11-18 09:00:00 ""               ""               ""              ""     
#> # … with 302 more rows, and abbreviated variable names ¹​ARG_TRE_Nan_Jt_3,
#> #   ²​ARG_TRE_Nan_Jt_4
get_env_flags(ARG_TRE) # solar default is FALSE
#> # A tibble: 312 × 10
#>    TIMESTAMP           ta    rh    vpd   sw_in ws    precip swc_shallow ppfd_in 
#>    <dttm>              <chr> <chr> <chr> <chr> <chr> <chr>  <chr>       <chr>   
#>  1 2009-11-18 00:00:00 ""    ""    ""    ""    ""    ""     ""          CALCULA…
#>  2 2009-11-18 01:00:00 ""    ""    ""    ""    ""    ""     ""          CALCULA…
#>  3 2009-11-18 02:00:00 ""    ""    ""    ""    ""    ""     ""          CALCULA…
#>  4 2009-11-18 03:00:00 ""    ""    ""    ""    ""    ""     ""          CALCULA…
#>  5 2009-11-18 04:00:00 ""    ""    ""    ""    ""    ""     ""          CALCULA…
#>  6 2009-11-18 05:00:00 ""    ""    ""    ""    ""    ""     ""          CALCULA…
#>  7 2009-11-18 06:00:00 ""    ""    ""    ""    ""    ""     ""          CALCULA…
#>  8 2009-11-18 07:00:00 ""    ""    ""    ""    ""    ""     ""          CALCULA…
#>  9 2009-11-18 08:00:00 ""    ""    ""    ""    ""    ""     ""          CALCULA…
#> 10 2009-11-18 09:00:00 ""    ""    ""    ""    ""    ""     ""          CALCULA…
#> # … with 302 more rows, and 1 more variable: ext_rad <chr>
…
foo_mutated_2 <- sfn_mutate_at(
  ARG_TRE,
  vars(one_of(names(get_sapf_data(ARG_TRE)[,-1]))),
  list(~ case_when(
    ws > 25 ~ NA_real_,
    TRUE ~ .
  ))
)

# see the difference between ARG_TRE and foo_mutated_2
get_sapf_data(ARG_TRE)
#> # A tibble: 312 × 5
#>    TIMESTAMP           ARG_TRE_Nan_Jt_1 ARG_TRE_Nan_Jt_2 ARG_TRE_Nan_J…¹ ARG_T…²
#>    <dttm>                         <dbl>            <dbl>           <dbl>   <dbl>
#>  1 2009-11-18 00:00:00             322.             190.            313.    218.
#>  2 2009-11-18 01:00:00             293.             157.            293.    293.
#>  3 2009-11-18 02:00:00             298.             178.            331.    309.
#>  4 2009-11-18 03:00:00             298.             168.            299.    258.
#>  5 2009-11-18 04:00:00             301.             170.            292.    301.
#>  6 2009-11-18 05:00:00             320.             198.            295.    261.
#>  7 2009-11-18 06:00:00             343.             196.            301.    285.
#>  8 2009-11-18 07:00:00             324.             194.            292.    282.
#>  9 2009-11-18 08:00:00             353.             284.            323.    374.
#> 10 2009-11-18 09:00:00             433.             340.            352.    372.
#> # … with 302 more rows, and abbreviated variable names ¹​ARG_TRE_Nan_Jt_3,
#> #   ²​ARG_TRE_Nan_Jt_4
get_sapf_data(foo_mutated_2)
#> # A tibble: 312 × 5
#>    TIMESTAMP           ARG_TRE_Nan_Jt_1 ARG_TRE_Nan_Jt_2 ARG_TRE_Nan_J…¹ ARG_T…²
#>    <dttm>                         <dbl>            <dbl>           <dbl>   <dbl>
#>  1 2009-11-18 00:00:00             322.             190.            313.    218.
#>  2 2009-11-18 01:00:00             293.             157.            293.    293.
#>  3 2009-11-18 02:00:00             298.             178.            331.    309.
#>  4 2009-11-18 03:00:00             298.             168.            299.    258.
#>  5 2009-11-18 04:00:00             301.             170.            292.    301.
#>  6 2009-11-18 05:00:00             320.             198.            295.    261.
#>  7 2009-11-18 06:00:00             343.             196.            301.    285.
#>  8 2009-11-18 07:00:00             324.             194.            292.    282.
#>  9 2009-11-18 08:00:00             353.             284.            323.    374.
#> 10 2009-11-18 09:00:00             433.             340.            352.    372.
#> # … with 302 more rows, and abbreviated variable names ¹​ARG_TRE_Nan_Jt_3,
#> #   ²​ARG_TRE_Nan_Jt_4
…
# show method
multi_sfn
#> sfn_data_multi object
#> 3 sites: ARG_TRE ARG_MAZ AUS_CAN_ST2_MIX
#> Approximate time span (UTC) for the combined sites: 2006-06-20 10:54:42 UTC--2009-11-18 22:24:18 UTC

get methods: they work the same as in the
sfn_data objects, except they return a list, with the
corresponding data for the sites in the sfn_data_multi
object as elements.

# get sap flow data
get_sapf_data(multi_sfn)
#> $ARG_TRE
#> # A tibble: 312 × 5
#>    TIMESTAMP           ARG_TRE_Nan_Jt_1 ARG_TRE_Nan_Jt_2 ARG_TRE_Nan_J…¹ ARG_T…²
#>    <dttm>                         <dbl>            <dbl>           <dbl>   <dbl>
#>  1 2009-11-18 00:00:00             322.             190.            313.    218.
#>  2 2009-11-18 01:00:00             293.             157.            293.    293.
#>  3 2009-11-18 02:00:00             298.             178.            331.    309.
#>  4 2009-11-18 03:00:00             298.             168.            299.    258.
#>  5 2009-11-18 04:00:00             301.             170.            292.    301.
#>  6 2009-11-18 05:00:00             320.             198.            295.    261.
#>  7 2009-11-18 06:00:00             343.             196.            301.    285.
#>  8 2009-11-18 07:00:00             324.             194.            292.    282.
#>  9 2009-11-18 08:00:00             353.             284.            323.    374.
#> 10 2009-11-18 09:00:00             433.             340.            352.    372.
#> # … with 302 more rows, and abbreviated variable names ¹​ARG_TRE_Nan_Jt_3,
#> #   ²​ARG_TRE_Nan_Jt_4
#> 
#> $ARG_MAZ
#> # A tibble: 288 × 6
#>    TIMESTAMP           ARG_MAZ_Npu_Jt_1 ARG_MAZ_Npu_Jt_2 ARG_M…¹ ARG_M…² ARG_M…³
#>    <dttm>                         <dbl>            <dbl>   <dbl>   <dbl>   <dbl>
#>  1 2009-11-19 00:00:00            1955.             754.    742.   2679.   1494.
#>  2 2009-11-19 01:00:00            1833.             752.    631.   2527.   1504.
#>  3 2009-11-19 02:00:00            1817.             795.    597.   2514.   1446.
#>  4 2009-11-19 03:00:00            1598.             788.    579.   1938.   1265.
#>  5 2009-11-19 04:00:00            1419.             780.    518.   2061.   1181.
#>  6 2009-11-19 05:00:00            1506.             735.    430.   1977.   1231.
#>  7 2009-11-19 06:00:00            1649.             720.    539.   1984.   1310.
#>  8 2009-11-19 07:00:00            1630.             882.    542.   2371.   1506.
#>  9 2009-11-19 08:00:00            1909.            1015.    655.   2926.   1690.
#> 10 2009-11-19 09:00:00            2849.            1459.    930.   3802.   2265.
#> # … with 278 more rows, and abbreviated variable names ¹​ARG_MAZ_Npu_Jt_3,
#> #   ²​ARG_MAZ_Npu_Jt_4, ³​ARG_MAZ_Npu_Jt_5
#> 
#> $AUS_CAN_ST2_MIX
#> # A tibble: 17,808 × 35
#>    TIMESTAMP           AUS_CAN…¹ AUS_C…² AUS_C…³ AUS_C…⁴ AUS_C…⁵ AUS_C…⁶ AUS_C…⁷
#>    <dttm>                  <dbl>   <dbl>   <dbl>   <dbl>   <dbl>   <dbl>   <dbl>
#>  1 2006-06-20 11:00:00        NA      NA      NA      NA      NA      NA      NA
#>  2 2006-06-20 11:30:00        NA      NA      NA      NA      NA      NA      NA
#>  3 2006-06-20 12:00:00        NA      NA      NA      NA      NA      NA      NA
#>  4 2006-06-20 12:30:00        NA      NA      NA      NA      NA      NA      NA
#>  5 2006-06-20 13:00:00        NA      NA      NA      NA      NA      NA      NA
#>  6 2006-06-20 13:30:00        NA      NA      NA      NA      NA      NA      NA
#>  7 2006-06-20 14:00:00        NA      NA      NA      NA      NA      NA      NA
#>  8 2006-06-20 14:30:00        NA      NA      NA      NA      NA      NA      NA
#>  9 2006-06-20 15:00:00        NA      NA      NA      NA      NA      NA      NA
#> 10 2006-06-20 15:30:00        NA      NA      NA      NA      NA      NA      NA
#> # … with 17,798 more rows, 27 more variables: AUS_CAN_ST2_MIX_Egl_Js_8 <dbl>,
#> #   AUS_CAN_ST2_MIX_Egl_Js_9 <dbl>, AUS_CAN_ST2_MIX_Ame_Js_10 <dbl>,
#> #   AUS_CAN_ST2_MIX_Ame_Js_11 <dbl>, AUS_CAN_ST2_MIX_Egl_Js_12 <dbl>,
#> #   AUS_CAN_ST2_MIX_Ame_Js_13 <dbl>, AUS_CAN_ST2_MIX_Egl_Js_14 <dbl>,
#> #   AUS_CAN_ST2_MIX_Egl_Js_15 <dbl>, AUS_CAN_ST2_MIX_Ame_Js_16 <dbl>,
#> #   AUS_CAN_ST2_MIX_Egl_Js_17 <dbl>, AUS_CAN_ST2_MIX_Ame_Js_18 <dbl>,
#> #   AUS_CAN_ST2_MIX_Ame_Js_19 <dbl>, AUS_CAN_ST2_MIX_Egl_Js_20 <dbl>, …
…
#> 1    180 Correct…    14.7 ARG_MA…   41.1 NA        109.  Np-1    Correc… NA     
#> 2    180 No azim…    13   ARG_MA…   33.2 NA         58.4 Np-2    Correc… NA     
#> 3    180 No azim…     6   ARG_MA…   23.2 NA         35.0 Np-3    Correc… NA     
#> 4    180 No azim…    21   ARG_MA…   55.6 NA        174.  Np-4    Correc… NA     
#> 5    180 No azim…    10   ARG_MA…   38   NA         88   Np-5    Correc… NA     
#> # … with 16 more variables: pl_sap_units <chr>, pl_sapw_area <dbl>,
#> #   pl_sapw_depth <dbl>, pl_sens_calib <lgl>, pl_sens_cor_grad <chr>,
#> #   pl_sens_cor_zero <chr>, pl_sens_hgt <dbl>, pl_sens_length <int>,
#> #   pl_sens_man <chr>, pl_sens_meth <chr>, pl_sens_timestep <int>,
#> #   pl_social <chr>, pl_species <chr>, pl_treatment <lgl>, si_code <chr>,
#> #   pl_sap_units_orig <chr>, and abbreviated variable names ¹​pl_azimut_int,
#> #   ²​pl_bark_thick, ³​pl_height, ⁴​pl_leaf_area, ⁵​pl_radial_int, ⁶​pl_remarks
#> 
#> $AUS_CAN_ST2_MIX
#> # A tibble: 34 × 26
#>    pl_age pl_az…¹ pl_ba…² pl_code pl_dbh pl_he…³ pl_le…⁴ pl_name pl_ra…⁵ pl_re…⁶
#>     <dbl> <chr>   <lgl>   <chr>    <dbl>   <dbl> <lgl>   <chr>   <chr>   <chr>  
#>  1   14.5 No azi… NA      AUS_CA…   13.1    14.3 NA      CRR4AE5 Measur… The tr…
#>  2   14.5 No azi… NA      AUS_CA…   10.4    12.9 NA      CRR2AE… Measur… <NA>   
#>  3   14.5 No azi… NA      AUS_CA…   12.8    14.1 NA      CRR3AE… Measur… <NA>   
#>  4   14.5 No azi… NA      AUS_CA…   17.1    19.4 NA      CRR3EA… Measur… <NA>   
#>  5   14.5 No azi… NA      AUS_CA…   11.6    13.6 NA      CRR3AE… Measur… <NA>   
#>  6   14.5 No azi… NA      AUS_CA…   19.2    20.5 NA      CRR3EA… Measur… <NA>   
#>  7   14.5 No azi… NA      AUS_CA…   12.8    16.6 NA      CRR3EA… Measur… <NA>   
#>  8   14.5 No azi… NA      AUS_CA…   12.5    14.1 NA      CRR3AE… Measur… <NA>   
#>  9   14.5 No azi… NA      AUS_CA…   13.6    17.2 NA      CRR4EA… Measur… <NA>   
#> 10   14.5 No azi… NA      AUS_CA…   13.8    14.7 NA      CRR4AE… Measur… <NA>   
#> # … with 24 more rows, 16 more variables: pl_sap_units <chr>,
#> #   pl_sapw_area <dbl>, pl_sapw_depth <dbl>, pl_sens_calib <lgl>,
#> #   pl_sens_cor_grad <lgl>, pl_sens_cor_zero <chr>, pl_sens_hgt <dbl>,
#> #   pl_sens_length <lgl>, pl_sens_man <lgl>, pl_sens_meth <chr>,
#> #   pl_sens_timestep <int>, pl_social <lgl>, pl_species <chr>,
#> #   pl_treatment <chr>, si_code <chr>, pl_sap_units_orig <chr>, and abbreviated
#> #   variable names ¹​pl_azimut_int, ²​pl_bark_thick, ³​pl_height, ⁴​pl_leaf_area, …
# with metadata, we can collapse
get_plant_md(multi_sfn, collapse = TRUE)
#> # A tibble: 43 × 26
#>    pl_age pl_az…¹ pl_ba…² pl_code pl_dbh pl_he…³ pl_le…⁴ pl_name pl_ra…⁵ pl_re…⁶
#>     <dbl> <chr>     <dbl> <chr>    <dbl>   <dbl>   <dbl> <chr>   <chr>   <chr>  
#>  1  140   Correc…    23.5 ARG_TR…   23.6    NA      29.7 Na-1    Correc… <NA>   
#>  2  140   No azi…    22.5 ARG_TR…   20.2    NA      13.0 Na-2    Correc… <NA>   
#>  3  140   No azi…    22   ARG_TR…   23.8    NA      29.8 Na-3    Correc… <NA>   
#>  4  140   No azi…    23.5 ARG_TR…   19.5    NA      15.1 Na-4    Correc… <NA>   
#>  5  180   Correc…    14.7 ARG_MA…   41.1    NA     109.  Np-1    Correc… <NA>   
#>  6  180   No azi…    13   ARG_MA…   33.2    NA      58.4 Np-2    Correc… <NA>   
#>  7  180   No azi…     6   ARG_MA…   23.2    NA      35.0 Np-3    Correc… <NA>   
#>  8  180   No azi…    21   ARG_MA…   55.6    NA     174.  Np-4    Correc… <NA>   
#>  9  180   No azi…    10   ARG_MA…   38      NA      88   Np-5    Correc… <NA>   
#> 10   14.5 No azi…    NA   AUS_CA…   13.1    14.3    NA   CRR4AE5 Measur… The tr…
#> # … with 33 more rows, 16 more variables: pl_sap_units <chr>,
#> #   pl_sapw_area <dbl>, pl_sapw_depth <dbl>, pl_sens_calib <lgl>,
#> #   pl_sens_cor_grad <chr>, pl_sens_cor_zero <chr>, pl_sens_hgt <dbl>,
#> #   pl_sens_length <int>, pl_sens_man <chr>, pl_sens_meth <chr>,
#> #   pl_sens_timestep <int>, pl_social <chr>, pl_species <chr>,
#> #   pl_treatment <chr>, si_code <chr>, pl_sap_units_orig <chr>, and abbreviated
#> #   variable names ¹​pl_azimut_int, ²​pl_bark_thick, ³​pl_height, ⁴​pl_leaf_area, …
…
